<?xml version="1.0" encoding="UTF-8"?>
<svg xmlns="http://www.w3.org/2000/svg" xmlns:xlink="http://www.w3.org/1999/xlink" width="75pt" height="74.999997pt" viewBox="0 0 75 74.999997" version="1.2">
<defs>
<clipPath id="clip1">
  <path d="M 5.621094 5.964844 L 71.621094 5.964844 L 71.621094 74.964844 L 5.621094 74.964844 Z M 5.621094 5.964844 "/>
</clipPath>
</defs>
<g id="surface1">
<path style=" stroke:none;fill-rule:nonzero;fill:rgb(43.528748%,79.219055%,84.709167%);fill-opacity:1;" d="M 37.5 18.769531 C 36.886719 18.769531 36.273438 18.800781 35.664062 18.859375 C 35.054688 18.921875 34.449219 19.011719 33.847656 19.128906 C 33.246094 19.25 32.648438 19.398438 32.0625 19.578125 C 31.476562 19.753906 30.898438 19.960938 30.332031 20.195312 C 29.765625 20.429688 29.210938 20.691406 28.671875 20.980469 C 28.128906 21.269531 27.605469 21.585938 27.09375 21.925781 C 26.585938 22.269531 26.09375 22.632812 25.617188 23.023438 C 25.144531 23.410156 24.691406 23.824219 24.257812 24.257812 C 23.824219 24.691406 23.410156 25.144531 23.023438 25.617188 C 22.632812 26.09375 22.269531 26.585938 21.925781 27.09375 C 21.585938 27.605469 21.269531 28.128906 20.980469 28.671875 C 20.691406 29.210938 20.429688 29.765625 20.195312 30.332031 C 19.960938 30.898438 19.753906 31.476562 19.578125 32.0625 C 19.398438 32.648438 19.25 33.246094 19.128906 33.847656 C 19.011719 34.449219 18.921875 35.054688 18.859375 35.664062 C 18.800781 36.273438 18.769531 36.886719 18.769531 37.5 C 18.769531 38.113281 18.800781 38.726562 18.859375 39.335938 C 18.921875 39.945312 19.011719 40.550781 19.128906 41.152344 C 19.25 41.753906 19.398438 42.351562 19.578125 42.9375 C 19.753906 43.523438 19.960938 44.101562 20.195312 44.667969 C 20.429688 45.234375 20.691406 45.789062 20.980469 46.328125 C 21.269531 46.871094 21.585938 47.394531 21.925781 47.90625 C 22.269531 48.414062 22.632812 48.90625 23.023438 49.382812 C 23.410156 49.855469 23.824219 50.308594 24.257812 50.742188 C 24.691406 51.175781 25.144531 51.589844 25.617188 51.976562 C 26.09375 52.367188 26.585938 52.730469 27.09375 53.074219 C 27.605469 53.414062 28.128906 53.730469 28.671875 54.019531 C 29.210938 54.308594 29.765625 54.570312 30.332031 54.804688 C 30.898438 55.039062 31.476562 55.246094 32.0625 55.421875 C 32.648438 55.601562 33.246094 55.75 33.847656 55.871094 C 34.449219 55.988281 35.054688 56.078125 35.664062 56.140625 C 36.273438 56.199219 36.886719 56.230469 37.5 56.230469 C 38.113281 56.230469 38.726562 56.199219 39.335938 56.140625 C 39.945312 56.078125 40.550781 55.988281 41.152344 55.871094 C 41.753906 55.75 42.351562 55.601562 42.9375 55.421875 C 43.523438 55.246094 44.101562 55.039062 44.667969 54.804688 C 45.234375 54.570312 45.789062 54.308594 46.328125 54.019531 C 46.871094 53.730469 47.394531 53.414062 47.90625 53.074219 C 48.414062 52.730469 48.90625 52.367188 49.382812 51.976562 C 49.855469 51.589844 50.308594 51.175781 50.742188 50.742188 C 51.175781 50.308594 51.589844 49.855469 51.976562 49.382812 C 52.367188 48.90625 52.730469 48.414062 53.074219 47.90625 C 53.414062 47.394531 53.730469 46.871094 54.019531 46.328125 C 54.308594 45.789062 54.570312 45.234375 54.804688 44.667969 C 55.039062 44.101562 55.246094 43.523438 55.421875 42.9375 C 55.601562 42.351562 55.75 41.753906 55.871094 41.152344 C 55.988281 40.550781 56.078125 39.945312 56.140625 39.335938 C 56.199219 38.726562 56.230469 38.113281 56.230469 37.5 C 56.230469 36.886719 56.199219 36.273438 56.140625 35.664062 C 56.078125 35.054688 55.988281 34.449219 55.871094 33.847656 C 55.75 33.246094 55.601562 32.648438 55.421875 32.0625 C 55.246094 31.476562 55.039062 30.898438 54.804688 30.332031 C 54.570312 29.765625 54.308594 29.210938 54.019531 28.671875 C 53.730469 28.128906 53.414062 27.605469 53.074219 27.09375 C 52.730469 26.585938 52.367188 26.09375 51.976562 25.617188 C 51.589844 25.144531 51.175781 24.691406 50.742188 24.257812 C 50.308594 23.824219 49.855469 23.410156 49.382812 23.023438 C 48.90625 22.632812 48.414062 22.269531 47.90625 21.925781 C 47.394531 21.585938 46.871094 21.269531 46.328125 20.980469 C 45.789062 20.691406 45.234375 20.429688 44.667969 20.195312 C 44.101562 19.960938 43.523438 19.753906 42.9375 19.578125 C 42.351562 19.398438 41.753906 19.25 41.152344 19.128906 C 40.550781 19.011719 39.945312 18.921875 39.335938 18.859375 C 38.726562 18.800781 38.113281 18.769531 37.5 18.769531 Z M 37.5 18.769531 "/>
<g clip-path="url(#clip1)" clip-rule="nonzero">
<path style=" stroke:none;fill-rule:nonzero;fill:rgb(23.529053%,25.099182%,25.878906%);fill-opacity:1;" d="M 61.714844 5.964844 C 56.261719 5.964844 51.820312 10.390625 51.820312 15.824219 C 51.820312 18.089844 52.585938 20.183594 53.886719 21.847656 L 49.191406 26.128906 C 46.199219 23.152344 42.078125 21.300781 37.523438 21.300781 C 32.34375 21.300781 27.710938 23.6875 24.6875 27.433594 L 20.3125 24.023438 C 19.839844 23.644531 19.144531 23.730469 18.773438 24.214844 C 18.398438 24.683594 18.488281 25.375 18.960938 25.746094 L 23.414062 29.21875 C 21.894531 31.703125 21.027344 34.605469 21.027344 37.726562 C 21.027344 40.050781 21.511719 42.261719 22.390625 44.257812 L 13.484375 48.15625 C 12.679688 47.136719 11.425781 46.488281 10.03125 46.488281 C 7.597656 46.488281 5.632812 48.449219 5.632812 50.871094 C 5.632812 53.292969 7.597656 55.253906 10.03125 55.253906 C 12.460938 55.253906 14.429688 53.292969 14.429688 50.871094 C 14.429688 50.632812 14.40625 50.402344 14.363281 50.167969 L 23.402344 46.214844 C 26.117188 50.675781 30.902344 53.75 36.421875 54.113281 L 36.421875 60.726562 C 36.421875 61.332031 36.917969 61.824219 37.523438 61.824219 C 38.128906 61.824219 38.621094 61.332031 38.621094 60.726562 L 38.621094 54.113281 C 42.660156 53.847656 46.285156 52.140625 49.015625 49.503906 L 53.445312 53.476562 C 52.425781 54.902344 51.820312 56.65625 51.820312 58.539062 C 51.820312 63.367188 55.765625 67.300781 60.617188 67.300781 C 65.464844 67.300781 69.414062 63.367188 69.414062 58.539062 C 69.414062 53.707031 65.464844 49.777344 60.617188 49.777344 C 58.453125 49.777344 56.457031 50.5625 54.929688 51.867188 L 50.480469 47.871094 C 52.699219 45.078125 54.019531 41.5625 54.019531 37.726562 C 54.019531 33.992188 52.761719 30.542969 50.640625 27.785156 L 55.425781 23.425781 C 57.140625 24.835938 59.328125 25.679688 61.714844 25.679688 C 67.171875 25.679688 71.613281 21.257812 71.613281 15.824219 C 71.613281 10.390625 67.171875 5.964844 61.714844 5.964844 Z M 61.714844 8.15625 C 65.960938 8.15625 69.414062 11.597656 69.414062 15.824219 C 69.414062 20.050781 65.960938 23.488281 61.714844 23.488281 C 59.96875 23.488281 58.359375 22.910156 57.0625 21.925781 C 56.472656 21.488281 55.957031 20.949219 55.511719 20.359375 C 54.566406 19.089844 54.019531 17.523438 54.019531 15.824219 C 54.019531 11.597656 57.472656 8.15625 61.714844 8.15625 Z M 12.230469 12.539062 C 8.589844 12.539062 5.632812 15.484375 5.632812 19.109375 C 5.632812 22.734375 8.589844 25.679688 12.230469 25.679688 C 15.867188 25.679688 18.828125 22.734375 18.828125 19.109375 C 18.828125 15.484375 15.867188 12.539062 12.230469 12.539062 Z M 12.230469 14.726562 C 14.65625 14.726562 16.628906 16.691406 16.628906 19.109375 C 16.628906 21.527344 14.65625 23.488281 12.230469 23.488281 C 9.800781 23.488281 7.832031 21.527344 7.832031 19.109375 C 7.832031 16.691406 9.800781 14.726562 12.230469 14.726562 Z M 36.09375 14.929688 C 35.488281 14.964844 35.027344 15.484375 35.066406 16.089844 L 35.199219 18.277344 C 35.234375 18.8125 35.652344 19.238281 36.167969 19.296875 C 36.234375 19.304688 36.296875 19.304688 36.363281 19.300781 C 36.972656 19.265625 37.433594 18.746094 37.394531 18.140625 L 37.261719 15.953125 C 37.222656 15.351562 36.707031 14.886719 36.09375 14.929688 Z M 42.070312 15.3125 C 41.480469 15.195312 40.898438 15.578125 40.777344 16.171875 L 40.34375 18.316406 C 40.222656 18.910156 40.609375 19.488281 41.203125 19.609375 C 41.234375 19.613281 41.261719 19.621094 41.292969 19.621094 C 41.859375 19.6875 42.386719 19.316406 42.5 18.75 L 42.933594 16.605469 C 43.054688 16.011719 42.667969 15.429688 42.070312 15.3125 Z M 30.644531 16 C 30.503906 15.988281 30.355469 16.007812 30.214844 16.054688 C 29.636719 16.246094 29.328125 16.867188 29.519531 17.441406 L 30.21875 19.519531 C 30.359375 19.933594 30.726562 20.210938 31.136719 20.257812 C 31.292969 20.277344 31.453125 20.261719 31.613281 20.207031 C 32.191406 20.015625 32.496094 19.394531 32.304688 18.820312 L 31.605469 16.746094 C 31.460938 16.316406 31.074219 16.035156 30.644531 16 Z M 47.316406 17.148438 C 46.886719 17.121094 46.464844 17.347656 46.261719 17.753906 L 45.28125 19.714844 C 45.011719 20.257812 45.234375 20.914062 45.777344 21.183594 C 45.894531 21.242188 46.019531 21.277344 46.140625 21.292969 C 46.585938 21.347656 47.039062 21.117188 47.253906 20.691406 L 48.230469 18.734375 C 48.503906 18.191406 48.28125 17.53125 47.738281 17.261719 C 47.601562 17.195312 47.457031 17.160156 47.316406 17.148438 Z M 25.234375 18.519531 C 25.09375 18.546875 24.957031 18.601562 24.828125 18.6875 C 24.324219 19.019531 24.1875 19.699219 24.523438 20.203125 L 25.742188 22.027344 C 25.925781 22.304688 26.222656 22.472656 26.53125 22.507812 C 26.78125 22.539062 27.039062 22.484375 27.265625 22.332031 C 27.773438 21.996094 27.90625 21.316406 27.570312 20.8125 L 26.355469 18.992188 C 26.101562 18.613281 25.65625 18.441406 25.234375 18.519531 Z M 37.523438 23.488281 C 41.4375 23.488281 44.988281 25.066406 47.574219 27.609375 C 48.101562 28.125 48.582031 28.679688 49.015625 29.273438 C 50.773438 31.640625 51.820312 34.574219 51.820312 37.726562 C 51.820312 40.980469 50.707031 43.992188 48.851562 46.40625 C 48.746094 46.539062 48.628906 46.667969 48.519531 46.800781 L 48.519531 45.394531 C 48.519531 41.71875 46.183594 38.484375 42.847656 37.210938 C 43.644531 36.125 44.121094 34.792969 44.121094 33.347656 C 44.121094 29.722656 41.160156 26.777344 37.523438 26.777344 C 33.882812 26.777344 30.925781 29.722656 30.925781 33.347656 C 30.925781 34.792969 31.402344 36.125 32.199219 37.210938 C 28.863281 38.484375 26.527344 41.71875 26.527344 45.394531 L 26.527344 46.796875 C 26.136719 46.324219 25.765625 45.835938 25.4375 45.316406 C 25.039062 44.707031 24.6875 44.046875 24.390625 43.378906 C 23.644531 41.636719 23.226562 39.730469 23.226562 37.726562 C 23.226562 35.132812 23.929688 32.6875 25.164062 30.585938 C 25.523438 29.949219 25.941406 29.351562 26.414062 28.777344 C 29.035156 25.5625 33.039062 23.488281 37.523438 23.488281 Z M 37.523438 28.964844 C 39.949219 28.964844 41.921875 30.929688 41.921875 33.347656 C 41.921875 35.761719 39.949219 37.726562 37.523438 37.726562 C 35.097656 37.726562 33.125 35.761719 33.125 33.347656 C 33.125 30.929688 35.097656 28.964844 37.523438 28.964844 Z M 34.101562 38.957031 C 35.101562 39.5625 36.269531 39.917969 37.523438 39.917969 C 38.777344 39.917969 39.945312 39.5625 40.945312 38.957031 C 44.023438 39.535156 46.320312 42.242188 46.320312 45.394531 L 46.320312 48.9375 C 44.164062 50.621094 41.507812 51.707031 38.621094 51.921875 C 38.261719 51.953125 37.898438 51.964844 37.523438 51.964844 C 37.148438 51.964844 36.785156 51.953125 36.421875 51.921875 C 33.53125 51.703125 30.878906 50.625 28.726562 48.945312 L 28.726562 45.394531 C 28.726562 42.242188 31.019531 39.535156 34.101562 38.957031 Z M 10.03125 48.679688 C 10.515625 48.679688 10.964844 48.835938 11.328125 49.109375 C 11.878906 49.5 12.230469 50.148438 12.230469 50.871094 C 12.230469 50.957031 12.230469 51.03125 12.214844 51.109375 C 12.097656 52.207031 11.152344 53.0625 10.03125 53.0625 C 8.816406 53.0625 7.832031 52.078125 7.832031 50.871094 C 7.832031 49.664062 8.816406 48.679688 10.03125 48.679688 Z M 60.617188 51.964844 C 64.253906 51.964844 67.214844 54.914062 67.214844 58.539062 C 67.214844 62.160156 64.253906 65.109375 60.617188 65.109375 C 56.976562 65.109375 54.019531 62.160156 54.019531 58.539062 C 54.019531 57.210938 54.414062 55.972656 55.097656 54.945312 C 55.492188 54.332031 56 53.785156 56.578125 53.347656 C 57.691406 52.480469 59.101562 51.964844 60.617188 51.964844 Z M 37.523438 64.015625 C 34.488281 64.015625 32.023438 66.46875 32.023438 69.488281 C 32.023438 72.511719 34.488281 74.964844 37.523438 74.964844 C 40.554688 74.964844 43.019531 72.511719 43.019531 69.488281 C 43.019531 66.46875 40.554688 64.015625 37.523438 64.015625 Z M 37.523438 66.203125 C 39.339844 66.203125 40.820312 67.679688 40.820312 69.488281 C 40.820312 71.300781 39.339844 72.777344 37.523438 72.777344 C 35.707031 72.777344 34.222656 71.300781 34.222656 69.488281 C 34.222656 67.679688 35.707031 66.203125 37.523438 66.203125 Z M 37.523438 66.203125 "/>
</g>
</g>
</svg>
